…
``` r
devtools::install_github("wlandau/crew")
```

Usage
=====

Your workload is a collection of commands named with job IDs.

``` r
library(crew)
workload <- example_workload()
workload
#> # A tibble: 8 x 2
#>   job                   command   
#>   <chr>                 <list>    
#> 1 small                 <language>
#> 2 large                 <language>
#> 3 regression_small      <language>
#> 4 regression_large      <language>
#> 5 summ_regression_small <language>
#> # ... with 3 more rows

workload$command[1:2]
#> [[1]]
#> saveRDS(data.frame(x = rnorm(48), y = rnorm(48)), "small.rds")
#> 
#> [[2]]
#> saveRDS(data.frame(x = rnorm(64), y = rnorm(64)), "large.rds")
```

Some jobs depend the output from other jobs, so `crew` needs a schedule of job IDs.

``` r
schedule <- example_schedule()
schedule
#> # A tibble: 6 x 2
#>   from             to                   
#>   <chr>            <chr>                
#> 1 small            regression_small     
#> 2 regression_small coef_regression_small
#> 3 regression_small summ_regression_small
#> 4 large            regression_large     
#> 5 regression_large coef_regression_large
#> # ... with 1 more row
```
…
